<?xml version="1.0" standalone="no"?><!-- Generator: Gravit.io -->
<svg xmlns="http://www.w3.org/2000/svg" 
  xmlns:xlink="http://www.w3.org/1999/xlink" style="isolation:isolate" viewBox="0 0 112 35" width="1120" height="350">
  <path d=" M 79.52 22.91 C 79.553 23.638 79.288 24.268 78.725 24.797 C 78.162 25.326 77.516 25.591 76.789 25.591 C 76.06 25.591 75.423 25.351 74.877 24.872 C 74.33 24.392 74.057 23.788 74.057 23.059 L 74.057 13.325 C 74.057 11.306 73.31 9.567 71.819 8.11 C 70.327 6.653 68.533 5.925 66.434 5.925 C 64.861 5.925 63.426 6.364 62.131 7.241 C 60.835 8.119 59.909 9.252 59.352 10.643 C 59.057 11.372 58.91 11.885 58.91 12.182 C 58.91 13.474 58.91 15.212 58.91 17.397 C 58.91 19.98 58.91 21.718 58.91 22.612 C 58.91 23.374 58.628 24.061 58.065 24.673 C 57.502 25.285 56.824 25.591 56.029 25.591 C 55.3 25.591 54.663 25.352 54.117 24.874 C 53.571 24.395 53.298 23.776 53.298 23.015 L 53.298 13.355 C 53.298 13.223 53.298 13.025 53.298 12.761 C 53.298 12.497 53.298 12.299 53.298 12.166 C 53.298 11.803 53.166 11.275 52.904 10.581 C 52.347 9.128 51.412 7.956 50.1 7.064 C 48.789 6.172 47.33 5.726 45.724 5.726 C 43.625 5.726 41.838 6.445 40.363 7.881 C 38.887 9.318 38.15 11.06 38.15 13.107 C 38.15 13.075 38.15 16.245 38.15 22.619 C 38.15 23.345 37.868 23.973 37.306 24.501 C 36.742 25.03 36.097 25.294 35.369 25.294 C 34.64 25.294 34.003 25.053 33.457 24.574 C 32.91 24.094 32.637 23.489 32.637 22.761 L 32.637 13.027 C 32.637 9.55 33.905 6.579 36.44 4.112 C 38.976 1.646 42.05 0.412 45.663 0.412 C 50.005 0.412 53.502 2.084 56.153 5.428 C 58.738 2.283 62.135 0.71 66.345 0.71 C 69.958 0.71 73.056 1.944 75.641 4.41 C 78.227 6.877 79.52 9.865 79.52 13.374 C 79.52 13.342 79.52 16.52 79.52 22.91 Z " fill="rgb(255,230,0)"/>
  <path d=" M 112 10.712 C 112 14.542 110.894 17.811 108.683 20.517 C 106.473 23.225 103.506 24.843 99.783 25.371 L 99.783 32.304 C 99.783 33.03 99.528 33.649 99.02 34.161 C 98.512 34.672 97.897 34.929 97.175 34.929 C 96.453 34.929 95.838 34.672 95.33 34.16 C 94.822 33.647 94.568 33.028 94.568 32.3 L 94.568 25.357 C 90.908 24.796 87.981 23.167 85.788 20.473 C 83.595 17.778 82.499 14.513 82.499 10.678 L 82.499 2.842 C 82.499 2.115 82.762 1.503 83.287 1.007 C 83.811 0.511 84.418 0.263 85.107 0.263 C 85.829 0.263 86.443 0.519 86.951 1.031 C 87.46 1.544 87.714 2.163 87.714 2.889 L 87.714 10.667 C 87.714 13.574 88.585 15.894 90.329 17.628 C 92.072 19.361 94.386 20.228 97.275 20.228 C 100.163 20.228 102.47 19.364 104.196 17.634 C 105.922 15.904 106.785 13.589 106.785 10.69 L 106.785 2.882 C 106.785 2.157 107.041 1.54 107.555 1.029 C 108.068 0.519 108.689 0.263 109.417 0.263 C 110.145 0.263 110.758 0.519 111.255 1.031 C 111.752 1.543 112 2.161 112 2.888 L 112 10.712 Z " fill="rgb(255,230,0)"/>
  <path d=" M 17.432 0.204 C 21.08 0.731 24.019 2.395 26.212 5.089 C 28.405 7.783 29.5 11.049 29.5 14.884 L 29.5 22.719 C 29.5 23.447 29.238 24.059 28.713 24.554 C 28.189 25.05 27.582 25.298 26.893 25.298 C 26.171 25.298 25.557 25.042 25.048 24.53 C 24.54 24.018 24.286 23.399 24.286 22.673 L 24.286 14.895 C 24.286 11.988 23.414 9.667 21.671 7.934 C 19.928 6.2 17.614 5.333 14.725 5.333 C 11.837 5.333 9.53 6.198 7.804 7.928 C 6.078 9.657 5.215 11.972 5.215 14.871 L 5.215 22.68 C 5.215 23.404 4.959 24.022 4.445 24.533 C 3.932 25.043 3.311 25.298 2.583 25.298 C 1.855 25.298 1.242 25.042 0.745 24.531 C 0.248 24.019 0 23.4 0 22.674 L 0 14.85 C 0 11.019 1.106 7.751 3.317 5.044 C 5.527 2.337 8.494 0.719 12.217 0.191 C 12.217 0.191 12.879 0 14.881 0 C 14.881 0 16.769 0.108 17.432 0.204 Z " fill="rgb(255,230,0)"/>
  <path d=" M 19.514 15.382 C 19.514 18.013 17.381 20.146 14.75 20.146 C 12.119 20.146 9.986 18.013 9.986 15.382 C 9.986 12.751 12.119 10.618 14.75 10.618 C 17.381 10.618 19.514 12.751 19.514 15.382 Z " fill="rgb(255,230,0)"/>
</svg>